[gd_scene load_steps=2 format=2]

[ext_resource path="res://Dersler/26-2 - Variable Scope - Part 2 - Variable Overshadowing/Variable Scope - Part 2 - Variable Overshadowing.gd" type="Script" id=1]

[node name="Variable Scope - Part 2 - Variable Overshadowing" type="Node"]
script = ExtResource( 1 )
