[gd_scene load_steps=2 format=2]

[ext_resource path="res://Dersler/14-1 Array-Dict Outdated Values/Array-Dict Outdated Values.gd" type="Script" id=1]

[node name="Array-Dict Outdated Values" type="Node"]
script = ExtResource( 1 )
