[gd_scene load_steps=2 format=2]

[ext_resource path="res://Dersler/15-3 - Assertions - Part 3/Assertions - Part 3.gd" type="Script" id=1]

[node name="Assertions - Part 3" type="Node"]
script = ExtResource( 1 )
